…
# Let's just take a look at the data.

emerging_market_fund_country_weights

## # A tibble: 28 × 2
##            name     EEM
##           <chr>   <dbl>
## 1         China 26.2748
## 2         Korea 14.5079
## 3        Taiwan 12.1467
## 4         India  8.4955
## 5        Brazil  8.0002
## 6  South Africa  6.5299
## 7        Russia  3.7958
## 8        Mexico  3.5443
## 9     Indonesia  2.4708
## 10     Malaysia  2.4534
## # ... with 18 more rows
…
# Let's test it on Brazil to make sure it works.

Brazil_companies <- EEM %>%
  filter(Country == "Brazil") %>% 
  ungroup() %>% 
  select(-Country)

Brazil_companies

## # A tibble: 60 × 4
##                                  Name           Sector `Weight (%)`
##                                 <chr>            <chr>        <dbl>
## 1       ITAU UNIBANCO HOLDING PREF SA       Financials       0.9494
## 2              BANCO BRADESCO PREF SA       Financials       0.6819
## 3                            AMBEV SA Consumer Staples       0.5889
## 4         PETROLEO BRASILEIRO PREF SA           Energy       0.4425
## 5                        VALE PREF SA        Materials       0.4221
## 6                           PETROBRAS           Energy       0.3537
## 7             CIA VALE DO RIO DOCE SH        Materials       0.2971
## 8   ITAUSA INVESTIMENTOS ITAU PREF SA       Financials       0.2870
## 9  BMF BOVESPA BOLSA DE VALORES MERCA       Financials       0.2374
## 10                BANCO DO BRASIL S/A       Financials       0.2229
## # ... with 50 more rows, and 1 more variables: `Market Value` <chr>
…
